^C:\USERS\718\DESKTOP\REPO\ENGINEBENJA\BENJAENGINE\PROJECT GRANADA\DEBUG\ENGINE.LIB|C:\USERS\718\DESKTOP\REPO\ENGINEBENJA\BENJAENGINE\PROJECT GRANADA\GAME\DEBUG\CHARACTER.OBJ|C:\USERS\718\DESKTOP\REPO\ENGINEBENJA\BENJAENGINE\PROJECT GRANADA\GAME\DEBUG\ENEMY.OBJ|C:\USERS\718\DESKTOP\REPO\ENGINEBENJA\BENJAENGINE\PROJECT GRANADA\GAME\DEBUG\GAME.RES|C:\USERS\718\DESKTOP\REPO\ENGINEBENJA\BENJAENGINE\PROJECT GRANADA\GAME\DEBUG\GRANADA.OBJ|C:\USERS\718\DESKTOP\REPO\ENGINEBENJA\BENJAENGINE\PROJECT GRANADA\GAME\DEBUG\GRANADAGAME.OBJ|C:\USERS\718\DESKTOP\REPO\ENGINEBENJA\BENJAENGINE\PROJECT GRANADA\GAME\DEBUG\OVNI.OBJ|C:\USERS\718\DESKTOP\REPO\ENGINEBENJA\BENJAENGINE\PROJECT GRANADA\GAME\DEBUG\PLAYERTANK.OBJ|C:\USERS\718\DESKTOP\REPO\ENGINEBENJA\BENJAENGINE\PROJECT GRANADA\GAME\DEBUG\STDAFX.OBJ
C:\PROGRAM FILES (X86)\WINDOWS KITS\10\LIB\10.0.16299.0\UM\X86\KERNEL32.LIB
C:\PROGRAM FILES (X86)\WINDOWS KITS\10\LIB\10.0.16299.0\UM\X86\USER32.LIB
C:\PROGRAM FILES (X86)\WINDOWS KITS\10\LIB\10.0.16299.0\UM\X86\GDI32.LIB
C:\PROGRAM FILES (X86)\WINDOWS KITS\10\LIB\10.0.16299.0\UM\X86\WINSPOOL.LIB
C:\PROGRAM FILES (X86)\WINDOWS KITS\10\LIB\10.0.16299.0\UM\X86\COMDLG32.LIB
C:\PROGRAM FILES (X86)\WINDOWS KITS\10\LIB\10.0.16299.0\UM\X86\ADVAPI32.LIB
C:\PROGRAM FILES (X86)\WINDOWS KITS\10\LIB\10.0.16299.0\UM\X86\SHELL32.LIB
C:\PROGRAM FILES (X86)\WINDOWS KITS\10\LIB\10.0.16299.0\UM\X86\OLE32.LIB
C:\PROGRAM FILES (X86)\WINDOWS KITS\10\LIB\10.0.16299.0\UM\X86\OLEAUT32.LIB
C:\PROGRAM FILES (X86)\WINDOWS KITS\10\LIB\10.0.16299.0\UM\X86\UUID.LIB
C:\PROGRAM FILES (X86)\WINDOWS KITS\10\LIB\10.0.16299.0\UM\X86\ODBC32.LIB
C:\PROGRAM FILES (X86)\WINDOWS KITS\10\LIB\10.0.16299.0\UM\X86\ODBCCP32.LIB
C:\USERS\718\DESKTOP\REPO\ENGINEBENJA\BENJAENGINE\PROJECT GRANADA\GAME\DEBUG\GAME.RES
C:\USERS\718\DESKTOP\REPO\ENGINEBENJA\BENJAENGINE\PROJECT GRANADA\GAME\DEBUG\CHARACTER.OBJ
C:\USERS\718\DESKTOP\REPO\ENGINEBENJA\BENJAENGINE\PROJECT GRANADA\GAME\DEBUG\ENEMY.OBJ
C:\USERS\718\DESKTOP\REPO\ENGINEBENJA\BENJAENGINE\PROJECT GRANADA\GAME\DEBUG\GRANADA.OBJ
C:\USERS\718\DESKTOP\REPO\ENGINEBENJA\BENJAENGINE\PROJECT GRANADA\GAME\DEBUG\GRANADAGAME.OBJ
C:\USERS\718\DESKTOP\REPO\ENGINEBENJA\BENJAENGINE\PROJECT GRANADA\GAME\DEBUG\OVNI.OBJ
C:\USERS\718\DESKTOP\REPO\ENGINEBENJA\BENJAENGINE\PROJECT GRANADA\GAME\DEBUG\PLAYERTANK.OBJ
C:\USERS\718\DESKTOP\REPO\ENGINEBENJA\BENJAENGINE\PROJECT GRANADA\GAME\DEBUG\STDAFX.OBJ
C:\USERS\718\DESKTOP\REPO\ENGINEBENJA\BENJAENGINE\PROJECT GRANADA\DEBUG\ENGINE.LIB
C:\WINDOWS\SYSTEM32\TZRES.DLL
C:\WINDOWS\GLOBALIZATION\SORTING\SORTDEFAULT.NLS
C:\USERS\718\DESKTOP\REPO\ENGINEBENJA\BENJAENGINE\PROJECT GRANADA\DX\LIB\X86\D3D9.LIB
C:\USERS\718\DESKTOP\REPO\ENGINEBENJA\BENJAENGINE\PROJECT GRANADA\DX\LIB\X86\D3DX9.LIB
C:\PROGRAM FILES (X86)\MICROSOFT VISUAL STUDIO\2017\COMMUNITY\VC\TOOLS\MSVC\14.16.27023\LIB\X86\MSVCRTD.LIB
C:\PROGRAM FILES (X86)\MICROSOFT VISUAL STUDIO\2017\COMMUNITY\VC\TOOLS\MSVC\14.16.27023\LIB\X86\OLDNAMES.LIB
C:\PROGRAM FILES (X86)\MICROSOFT VISUAL STUDIO\2017\COMMUNITY\VC\TOOLS\MSVC\14.16.27023\LIB\X86\MSVCPRTD.LIB
C:\USERS\718\DESKTOP\REPO\ENGINEBENJA\BENJAENGINE\PROJECT GRANADA\DX\LIB\X86\DINPUT8.LIB
C:\USERS\718\DESKTOP\REPO\ENGINEBENJA\BENJAENGINE\PROJECT GRANADA\DX\LIB\X86\DXGUID.LIB
C:\PROGRAM FILES (X86)\MICROSOFT VISUAL STUDIO\2017\COMMUNITY\VC\TOOLS\MSVC\14.16.27023\LIB\X86\VCRUNTIMED.LIB
C:\PROGRAM FILES (X86)\WINDOWS KITS\10\LIB\10.0.16299.0\UCRT\X86\UCRTD.LIB
